longitude,latitude,time
-37.0624283811754,-10.9394394198589,2014-09-13 13:37:54.0
-37.062569922389,-10.9394423216378,2014-09-13 13:37:59.0
-37.062569922389,-10.9394423216378,2014-09-13 13:38:05.0
-37.062569922389,-10.9394423216378,2014-09-13 13:38:11.0
-37.0628040561796,-10.9389940189541,2014-09-13 13:38:17.0
-37.0629643381166,-10.9386031368379,2014-09-13 13:38:22.0
-37.0627897829822,-10.9383580704773,2014-09-13 13:38:27.0
-37.0623723921363,-10.9382929933406,2014-09-13 13:38:32.0
-37.0617623761861,-10.9385442666704,2014-09-13 13:38:38.0
-37.0610577138091,-10.9388976451446,2014-09-13 13:38:44.0
-37.0603401348362,-10.939286303702,2014-09-13 13:38:50.0
-37.0597757046112,-10.9395848167205,2014-09-13 13:38:55.0
-37.0593546545551,-10.9398125858738,2014-09-13 13:39:00.0
-37.0589944008603,-10.9400391217797,2014-09-13 13:39:06.0
-37.0589085526268,-10.9402937450586,2014-09-13 13:39:11.0
-37.0589932426757,-10.9404456811417,2014-09-13 13:39:16.0
-37.0592093307299,-10.9407101935088,2014-09-13 13:39:21.0
-37.0593807860186,-10.9409149805608,2014-09-13 13:39:27.0
-37.0593826224655,-10.9409218740574,2014-09-13 13:39:33.0
-37.0595581219005,-10.9411148943361,2014-09-13 13:39:39.0
-37.0598464342116,-10.941432326776,2014-09-13 13:39:44.0
-37.060295261613,-10.9418928712691,2014-09-13 13:39:50.0
-37.0607462389275,-10.9423469125856,2014-09-13 13:39:56.0
-37.0609680232943,-10.9425803954512,2014-09-13 13:40:01.0
-37.061019455344,-10.9426395313217,2014-09-13 13:40:07.0
-37.061019455344,-10.9426395313217,2014-09-13 13:40:13.0
-37.061019455344,-10.9426395313217,2014-09-13 13:40:18.0
-37.0610417000768,-10.9426609697117,2014-09-13 13:40:23.0
-37.0612328030135,-10.942860966487,2014-09-13 13:40:29.0
-37.0615523335932,-10.943153046112,2014-09-13 13:40:34.0
-37.0619215277294,-10.9435076521971,2014-09-13 13:40:39.0
-37.0621534000362,-10.944101382613,2014-09-13 13:40:45.0
-37.0623046854073,-10.9446848104324,2014-09-13 13:40:50.0
-37.0625165384282,-10.9452775946114,2014-09-13 13:40:55.0
-37.0628127118287,-10.9459467284756,2014-09-13 13:41:01.0
-37.063088685173,-10.9467185939207,2014-09-13 13:41:07.0
-37.063353116612,-10.9473015742741,2014-09-13 13:41:12.0
-37.0638136913417,-10.9477864438261,2014-09-13 13:41:17.0
-37.0644578543958,-10.9484458652489,2014-09-13 13:41:23.0
-37.065008034858,-10.9490483216518,2014-09-13 13:41:28.0
-37.0657111502789,-10.949794031983,2014-09-13 13:41:34.0
-37.0663287864546,-10.9504375968955,2014-09-13 13:41:39.0
-37.0668716769588,-10.9510185932797,2014-09-13 13:41:44.0
-37.0672498437447,-10.9516480116529,2014-09-13 13:41:50.0
-37.067389942836,-10.9519461678284,2014-09-13 13:41:55.0
-37.0676607668382,-10.9524568519142,2014-09-13 13:42:01.0
-37.0680128866316,-10.9531169222622,2014-09-13 13:42:07.0
-37.068346468491,-10.9537359657269,2014-09-13 13:42:12.0
-37.0686190611861,-10.9542564297289,2014-09-13 13:42:17.0
-37.0687690439177,-10.9545603667325,2014-09-13 13:42:23.0
-37.0690663435052,-10.9551056026228,2014-09-13 13:42:29.0
-37.0693744433104,-10.9557183655362,2014-09-13 13:42:34.0
-37.0695151638546,-10.9564599836807,2014-09-13 13:42:39.0
-37.0694596750529,-10.9572254865313,2014-09-13 13:42:44.0
-37.0693734739662,-10.9582645013042,2014-09-13 13:42:50.0
-37.0693003846027,-10.9592670047711,2014-09-13 13:42:55.0
-37.069247490638,-10.9603340326289,2014-09-13 13:43:00.0
-37.069178997781,-10.9616459030409,2014-09-13 13:43:06.0
-37.0691043829326,-10.9627094050316,2014-09-13 13:43:11.0
-37.0690349745941,-10.9639731912507,2014-09-13 13:43:17.0
-37.0689742900108,-10.9649785320979,2014-09-13 13:43:23.0
-37.06850669225,-10.9656844000839,2014-09-13 13:43:29.0
-37.0676889838326,-10.9659204446714,2014-09-13 13:43:34.0
-37.066886307788,-10.9661080889898,2014-09-13 13:43:39.0
-37.0660084525239,-10.9663018114565,2014-09-13 13:43:45.0
-37.0653403308881,-10.9664672112953,2014-09-13 13:43:50.0
-37.0649914667687,-10.966982125521,2014-09-13 13:43:56.0
-37.0652842497491,-10.9676419823474,2014-09-13 13:44:02.0
-37.0655749420639,-10.9681432651831,2014-09-13 13:44:07.0
-37.0659983158624,-10.9687186048181,2014-09-13 13:44:13.0
-37.0664603048909,-10.9692736851925,2014-09-13 13:44:19.0
-37.0666011802368,-10.9694520433162,2014-09-13 13:44:24.0
-37.0667169062406,-10.9695975369026,2014-09-13 13:44:30.0
-37.0669367021317,-10.9698527543158,2014-09-13 13:44:36.0
-37.0671957013014,-10.970169469204,2014-09-13 13:44:41.0
-37.0673989553389,-10.9704145056795,2014-09-13 13:44:46.0
-37.0673537914919,-10.9704823388452,2014-09-13 13:44:51.0
-37.0671533742236,-10.9703248352321,2014-09-13 13:44:57.0
-37.0670472630756,-10.970203085515,2014-09-13 13:45:02.0
-37.0668729979152,-10.970240757596,2014-09-13 13:45:07.0
-37.0665993955823,-10.9704639124286,2014-09-13 13:45:13.0
-37.0663210749768,-10.9707427246894,2014-09-13 13:45:19.0
-37.0664765576293,-10.9710545051758,2014-09-13 13:45:25.0
-37.0667788492814,-10.9714066851739,2014-09-13 13:45:30.0
-37.0671774817216,-10.971868273977,2014-09-13 13:45:36.0
-37.0673255290329,-10.9720195093279,2014-09-13 13:45:41.0
-37.0674431150355,-10.9721535787811,2014-09-13 13:45:46.0
-37.0676185320368,-10.9723853980217,2014-09-13 13:45:52.0
-37.0677771839722,-10.9725870409604,2014-09-13 13:45:58.0
-37.0679989983138,-10.972866707141,2014-09-13 13:46:03.0
-37.0682447143624,-10.9731819628945,2014-09-13 13:46:08.0
-37.0683559559915,-10.9732900785187,2014-09-13 13:46:13.0
-37.0683913004652,-10.9733139585351,2014-09-13 13:46:18.0
-37.0683913004652,-10.9733139585351,2014-09-13 13:46:24.0
-37.0684817571867,-10.9734062499978,2014-09-13 13:46:29.0
-37.0685784298369,-10.973555178647,2014-09-13 13:46:34.0
-37.0688123792686,-10.9738802641552,2014-09-13 13:46:40.0
-37.0689424370995,-10.9740912270299,2014-09-13 13:46:45.0
-37.0688614803445,-10.9741847406868,2014-09-13 13:46:51.0
-37.0687222043496,-10.9742859284246,2014-09-13 13:46:57.0
-37.0686312178265,-10.97436294802,2014-09-13 13:47:03.0
-37.0685598169878,-10.9744222329266,2014-09-13 13:47:08.0
-37.068489688182,-10.9744799736882,2014-09-13 13:47:14.0
-37.0684142251994,-10.9745460732324,2014-09-13 13:47:19.0
-37.0682421494243,-10.9746733426089,2014-09-13 13:47:24.0
-37.0680676405789,-10.9747969421715,2014-09-13 13:47:29.0
-37.0679855940568,-10.9748781946833,2014-09-13 13:47:34.0
-37.0679097230187,-10.9749433422145,2014-09-13 13:47:40.0
-37.0679097230187,-10.9749433422145,2014-09-13 13:47:45.0
-37.0678894370718,-10.9749615481927,2014-09-13 13:47:50.0
-37.0678894370718,-10.9749615481927,2014-09-13 13:47:56.0
-37.0678894370718,-10.9749615481927,2014-09-13 13:48:01.0
-37.0678894370718,-10.9749615481927,2014-09-13 13:48:07.0