longitude,latitude,time
15.955174300000001,45.7924583,2020-12-14 14:13:59.00001
15.9552528,45.7924621,2020-12-14 14:14:24.00001
15.9553918,45.792463,2020-12-14 14:14:50.00001
15.955334399999998,45.792888500000004,2020-12-14 14:15:15.00001
15.955279199999998,45.79360870000001,2020-12-14 14:15:40.00001
15.955264399999999,45.793781900000006,2020-12-14 14:16:06.00001
15.955260099999999,45.793826,2020-12-14 14:16:31.00001
15.955245299999998,45.7939998,2020-12-14 14:16:56.00001
15.955244999999998,45.7940624,2020-12-14 14:17:22.00001
15.9552971,45.7941668,2020-12-14 14:17:47.00001
15.955951599999997,45.7941572,2020-12-14 14:18:12.00001
15.956299799999998,45.79415770000001,2020-12-14 14:18:38.00001
15.956482899999997,45.79418280000001,2020-12-14 14:19:03.00001
15.956712899999998,45.79423520000001,2020-12-14 14:19:28.00001
15.956805199999998,45.79424290000001,2020-12-14 14:19:53.00001
15.956899,45.794249400000005,2020-12-14 14:20:19.00001
15.957197,45.79424290000001,2020-12-14 14:20:44.00001
15.957529599999999,45.79422860000001,2020-12-14 14:21:09.00001
15.9577978,45.79422400000001,2020-12-14 14:21:35.00001
15.957946899999998,45.794203700000004,2020-12-14 14:22:00.00001
15.958298399999999,45.794143000000005,2020-12-14 14:22:25.00001
15.958453799999997,45.7941218,2020-12-14 14:22:51.00001
15.958521499999996,45.7941094,2020-12-14 14:23:16.00001
15.958688799999996,45.7940795,2020-12-14 14:23:41.00001
15.958716799999994,45.7941303,2020-12-14 14:24:07.00001
15.958834999999995,45.794345400000005,2020-12-14 14:24:32.00001
15.959187899999995,45.7948528,2020-12-14 14:24:57.00001
15.959305999999994,45.795064100000005,2020-12-14 14:25:23.00001
15.959359199999993,45.795160700000004,2020-12-14 14:25:48.00001
15.959537999999991,45.7954287,2020-12-14 14:26:13.00001
15.959933099999994,45.796039,2020-12-14 14:26:39.00001
15.960204899999995,45.7964323,2020-12-14 14:27:04.00001
15.960480299999995,45.796839999999996,2020-12-14 14:27:29.00001
15.960510599999996,45.7968911,2020-12-14 14:27:54.00001
15.960534199999994,45.796928,2020-12-14 14:28:20.00001
15.960584799999996,45.79698270000001,2020-12-14 14:28:45.00001
15.960668399999996,45.79710810000001,2020-12-14 14:29:10.00001
15.960763599999995,45.797244000000006,2020-12-14 14:29:36.00001
15.961040299999995,45.79765200000001,2020-12-14 14:30:01.00001
15.961208199999994,45.79789460000001,2020-12-14 14:30:26.00001
15.961263499999996,45.797966200000005,2020-12-14 14:30:52.00001
15.961405999999997,45.79818950000001,2020-12-14 14:31:17.00001
15.961598599999995,45.7984725,2020-12-14 14:31:42.00001
15.962107199999997,45.799215100000005,2020-12-14 14:32:08.00001
15.962072199999998,45.799313000000005,2020-12-14 14:32:33.00001
15.962061799999999,45.79933920000001,2020-12-14 14:32:58.00001
15.962211199999997,45.79950980000001,2020-12-14 14:33:24.00001
15.962407199999996,45.79974890000001,2020-12-14 14:33:49.00001
15.962742199999997,45.80023390000001,2020-12-14 14:34:14.00001
15.962873799999997,45.80036220000001,2020-12-14 14:34:40.00001
15.963014599999996,45.80053480000001,2020-12-14 14:35:05.00001
15.963231599999995,45.80086810000001,2020-12-14 14:35:30.00001
15.963391599999994,45.80109730000001,2020-12-14 14:35:55.00001
15.963912099999995,45.8018646,2020-12-14 14:36:21.00001
15.964166999999994,45.802227800000004,2020-12-14 14:36:46.00001
15.964260599999992,45.80237400000001,2020-12-14 14:37:11.00001
15.964455799999993,45.8026454,2020-12-14 14:37:37.00001
15.964881299999993,45.803279200000006,2020-12-14 14:38:02.00001
15.965178099999992,45.8037159,2020-12-14 14:38:27.00001
15.965203199999992,45.803752200000005,2020-12-14 14:38:53.00001
15.965423999999993,45.8040776,2020-12-14 14:39:18.00001
15.965559499999994,45.8042789,2020-12-14 14:39:43.00001
15.965708899999994,45.8044966,2020-12-14 14:40:09.00001
15.966031899999992,45.8049718,2020-12-14 14:40:34.00001
15.966343899999991,45.805404599999996,2020-12-14 14:40:59.00001
15.966518699999991,45.805664799999995,2020-12-14 14:41:25.00001
15.966627899999992,45.805824599999994,2020-12-14 14:41:50.00001
15.967364499999992,45.80689939999999,2020-12-14 14:42:15.00001
15.967430499999992,45.80700289999999,2020-12-14 14:42:41.00001
15.967531399999991,45.807129599999996,2020-12-14 14:43:06.00001
15.967665499999992,45.8073465,2020-12-14 14:43:31.00001
15.968100299999993,45.8080259,2020-12-14 14:43:56.00001
15.968125799999992,45.808062799999995,2020-12-14 14:44:22.00001
15.968167399999992,45.8081249,2020-12-14 14:44:47.00001
15.96825149999999,45.8082459,2020-12-14 14:45:12.00001
15.96872419999999,45.8089255,2020-12-14 14:45:38.00001
15.969215799999992,45.80893,2020-12-14 14:46:03.00001
15.969218199999991,45.8090016,2020-12-14 14:46:28.00001
15.969213099999992,45.8090297,2020-12-14 14:46:54.00001
15.96917999999999,45.809847100000006,2020-12-14 14:47:19.00001
15.969179199999992,45.809976,2020-12-14 14:47:44.00001
15.969216499999993,45.8100334,2020-12-14 14:48:10.00001
15.969342899999992,45.8101155,2020-12-14 14:48:35.00001
15.969558999999991,45.8101736,2020-12-14 14:49:00.00001
15.969639399999991,45.81018999999999,2020-12-14 14:49:26.00001
15.96982959999999,45.810207299999995,2020-12-14 14:49:51.00001
15.96997209999999,45.81020939999999,2020-12-14 14:50:16.00001
15.97049889999999,45.81018279999999,2020-12-14 14:50:42.00001
15.97062659999999,45.810183599999995,2020-12-14 14:51:07.00001
15.97081659999999,45.81019519999999,2020-12-14 14:51:32.00001
15.970941799999991,45.81021009999999,2020-12-14 14:51:57.00001
15.971121299999991,45.810241199999986,2020-12-14 14:52:23.00001
15.971287299999993,45.81028149999999,2020-12-14 14:52:48.00001
15.972153699999993,45.810519099999986,2020-12-14 14:53:13.00001
15.972324499999992,45.810624899999986,2020-12-14 14:53:39.00001
15.97261609999999,45.810713599999985,2020-12-14 14:54:04.00001
15.973415099999992,45.81096519999999,2020-12-14 14:54:29.00001
15.974274999999992,45.81124649999999,2020-12-14 14:54:55.00001
15.97445839999999,45.81125819999999,2020-12-14 14:55:20.00001
15.974534999999992,45.81126299999999,2020-12-14 14:55:45.00001
